<?xml version="1.0" encoding="UTF-8" standalone="no"?>
<svg
   xmlns:dc="http://purl.org/dc/elements/1.1/"
   xmlns:cc="http://creativecommons.org/ns#"
   xmlns:rdf="http://www.w3.org/1999/02/22-rdf-syntax-ns#"
   xmlns:svg="http://www.w3.org/2000/svg"
   xmlns="http://www.w3.org/2000/svg"
   xmlns:sodipodi="http://sodipodi.sourceforge.net/DTD/sodipodi-0.dtd"
   xmlns:inkscape="http://www.inkscape.org/namespaces/inkscape"
   width="210mm"
   height="297mm"
   viewBox="0 0 210 297"
   version="1.1"
   id="svg5"
   inkscape:version="1.0.2-2 (e86c870879, 2021-01-15)"
   sodipodi:docname="dessin_tri_fusion_decoupe_fusion.svg"
   inkscape:export-filename="C:\Users\Seb\Documents\git_gitlab\spe_info_term\docs\Diviser pour régner\data\dessin_tri_fusion_decoupe_fusion.png"
   inkscape:export-xdpi="97.481499"
   inkscape:export-ydpi="97.481499">
  <metadata
     id="metadata122">
    <rdf:RDF>
      <cc:Work
         rdf:about="">
        <dc:format>image/svg+xml</dc:format>
        <dc:type
           rdf:resource="http://purl.org/dc/dcmitype/StillImage" />
        <dc:title></dc:title>
      </cc:Work>
    </rdf:RDF>
  </metadata>
  <sodipodi:namedview
     id="namedview7"
     pagecolor="#ffffff"
     bordercolor="#666666"
     borderopacity="1.0"
     inkscape:pageshadow="2"
     inkscape:pageopacity="0.0"
     inkscape:pagecheckerboard="0"
     inkscape:document-units="mm"
     showgrid="false"
     inkscape:zoom="1.0547699"
     inkscape:cx="243.65503"
     inkscape:cy="463.13417"
     inkscape:window-width="1920"
     inkscape:window-height="1057"
     inkscape:window-x="-8"
     inkscape:window-y="151"
     inkscape:window-maximized="1"
     inkscape:current-layer="layer1"
     inkscape:document-rotation="0" />
  <defs
     id="defs2" />
  <g
     inkscape:label="Calque 1"
     inkscape:groupmode="layer"
     id="layer1">
    <path
       inkscape:export-ydpi="96"
       inkscape:export-xdpi="96"
       sodipodi:nodetypes="cc"
       inkscape:connector-curvature="0"
       id="path5011-0-6-48-7-7-7-5"
       d="m 171.37452,104.67809 7.9375,-6.614588"
       style="fill:#008000;stroke:#1b91f1;stroke-width:0.565;stroke-linecap:round;stroke-linejoin:miter;stroke-miterlimit:4;stroke-dasharray:none;stroke-opacity:1"
       inkscape:export-filename="/home/gilles/Dropbox/nsidocs/terminale_nsi/docs/T3_Algorithmique/3.1_Diviser_pour_regner/data/fusion.png" />
    <path
       inkscape:export-ydpi="96"
       inkscape:export-xdpi="96"
       sodipodi:nodetypes="cc"
       inkscape:connector-curvature="0"
       id="path5011-0-6-48-7-1-6"
       d="m 163.43702,98.063501 7.9375,6.614579"
       style="fill:#008000;stroke:#1b91f1;stroke-width:0.565;stroke-linecap:round;stroke-linejoin:miter;stroke-miterlimit:4;stroke-dasharray:none;stroke-opacity:1"
       inkscape:export-filename="/home/gilles/Dropbox/nsidocs/terminale_nsi/docs/T3_Algorithmique/3.1_Diviser_pour_regner/data/fusion.png" />
    <path
       inkscape:export-ydpi="96"
       inkscape:export-xdpi="96"
       sodipodi:nodetypes="cc"
       inkscape:connector-curvature="0"
       id="path5011-0-6-48-7-7-7"
       d="m 136.97868,106.001 6.61458,-7.937496"
       style="fill:#008000;stroke:#1b91f1;stroke-width:0.565;stroke-linecap:round;stroke-linejoin:miter;stroke-miterlimit:4;stroke-dasharray:none;stroke-opacity:0.988235"
       inkscape:export-filename="/home/gilles/Dropbox/nsidocs/terminale_nsi/docs/T3_Algorithmique/3.1_Diviser_pour_regner/data/fusion.png" />
    <path
       inkscape:export-ydpi="96"
       inkscape:export-xdpi="96"
       sodipodi:nodetypes="cc"
       inkscape:connector-curvature="0"
       id="path5011-0-6-48-7-1"
       d="m 127.71826,98.063504 10.58334,6.614586"
       style="fill:#008000;stroke:#1b85f1;stroke-width:0.565;stroke-linecap:round;stroke-linejoin:miter;stroke-miterlimit:4;stroke-dasharray:none;stroke-opacity:0.996078"
       inkscape:export-filename="/home/gilles/Dropbox/nsidocs/terminale_nsi/docs/T3_Algorithmique/3.1_Diviser_pour_regner/data/fusion.png" />
    <path
       inkscape:export-ydpi="96"
       inkscape:export-xdpi="96"
       sodipodi:nodetypes="cc"
       inkscape:connector-curvature="0"
       id="path5011-0-6-48-7"
       d="m 89.353684,98.063505 5.291667,6.614585"
       style="fill:#008000;stroke:#1b85f1;stroke-width:0.565;stroke-linecap:round;stroke-linejoin:miter;stroke-miterlimit:4;stroke-dasharray:none;stroke-opacity:0.996078"
       inkscape:export-filename="/home/gilles/Dropbox/nsidocs/terminale_nsi/docs/T3_Algorithmique/3.1_Diviser_pour_regner/data/fusion.png" />
    <path
       inkscape:export-ydpi="96"
       inkscape:export-xdpi="96"
       sodipodi:nodetypes="cc"
       inkscape:connector-curvature="0"
       id="path5011-0-6-48"
       d="M 57.603684,98.063505 81.416187,121.87601"
       style="fill:#008000;stroke:#1b85f1;stroke-width:0.565;stroke-linecap:round;stroke-linejoin:miter;stroke-miterlimit:4;stroke-dasharray:none;stroke-opacity:0.996078"
       inkscape:export-filename="/home/gilles/Dropbox/nsidocs/terminale_nsi/docs/T3_Algorithmique/3.1_Diviser_pour_regner/data/fusion.png" />
    <g
       inkscape:export-ydpi="96"
       inkscape:export-xdpi="96"
       id="g4548"
       transform="translate(23.207854,18.021837)"
       inkscape:export-filename="/home/gilles/Dropbox/nsidocs/terminale_nsi/docs/T3_Algorithmique/3.1_Diviser_pour_regner/data/fusion.png">
      <rect
         id="rect3738"
         width="52.916664"
         height="6.614583"
         x="67.46875"
         y="33.739582"
         style="fill:#483737;stroke-width:0.264583"
         ry="1.3229179" />
      <text
         xml:space="preserve"
         style="font-style:normal;font-weight:normal;font-size:10.5833px;line-height:1.25;font-family:sans-serif;letter-spacing:0px;word-spacing:0px;fill:#ffffff;fill-opacity:1;stroke:none;stroke-width:0.264583"
         x="68.413689"
         y="38.842262"
         id="text3717"><tspan
           sodipodi:role="line"
           id="tspan3715"
           x="68.413689"
           y="38.842262"
           style="font-size:5.64444px;fill:#ffffff;stroke-width:0.264583">[4, 8, 3, 2, 7, 5, 1]</tspan></text>
    </g>
    <rect
       inkscape:export-ydpi="96"
       inkscape:export-xdpi="96"
       ry="1.3229179"
       style="fill:#483737;stroke-width:0.264583"
       y="64.990585"
       x="65.541176"
       height="6.6145821"
       width="31.750008"
       id="rect3738-6"
       inkscape:export-filename="/home/gilles/Dropbox/nsidocs/terminale_nsi/docs/T3_Algorithmique/3.1_Diviser_pour_regner/data/fusion.png" />
    <text
       inkscape:export-ydpi="96"
       inkscape:export-xdpi="96"
       id="text3717-7"
       y="70.282257"
       x="70.549362"
       style="font-style:normal;font-weight:normal;font-size:10.5833px;line-height:1.25;font-family:sans-serif;letter-spacing:0px;word-spacing:0px;fill:#ffffff;fill-opacity:1;stroke:none;stroke-width:0.264583"
       xml:space="preserve"
       inkscape:export-filename="/home/gilles/Dropbox/nsidocs/terminale_nsi/docs/T3_Algorithmique/3.1_Diviser_pour_regner/data/fusion.png"><tspan
         style="font-size:5.64444px;fill:#ffffff;stroke-width:0.264583"
         y="70.282257"
         x="70.549362"
         id="tspan3715-5"
         sodipodi:role="line">[4, 8, 3]</tspan></text>
    <rect
       inkscape:export-ydpi="96"
       inkscape:export-xdpi="96"
       ry="1.3229179"
       style="fill:#483737;stroke-width:0.264583"
       y="64.990585"
       x="133.00995"
       height="6.6145821"
       width="31.750008"
       id="rect3738-6-5"
       inkscape:export-filename="/home/gilles/Dropbox/nsidocs/terminale_nsi/docs/T3_Algorithmique/3.1_Diviser_pour_regner/data/fusion.png" />
    <text
       inkscape:export-ydpi="96"
       inkscape:export-xdpi="96"
       id="text3717-7-6"
       y="69.959633"
       x="134.73491"
       style="font-style:normal;font-weight:normal;font-size:10.5833px;line-height:1.25;font-family:sans-serif;letter-spacing:0px;word-spacing:0px;fill:#ffffff;fill-opacity:1;stroke:none;stroke-width:0.264583"
       xml:space="preserve"
       inkscape:export-filename="/home/gilles/Dropbox/nsidocs/terminale_nsi/docs/T3_Algorithmique/3.1_Diviser_pour_regner/data/fusion.png"><tspan
         style="font-size:5.64444px;fill:#ffffff;stroke-width:0.264583"
         y="69.959633"
         x="134.73491"
         id="tspan3715-5-2"
         sodipodi:role="line">[2, 7, 5, 1]</tspan></text>
    <rect
       inkscape:export-ydpi="96"
       inkscape:export-xdpi="96"
       ry="1.3229179"
       style="fill:#483737;stroke-width:0.264583"
       y="78.219757"
       x="85.384918"
       height="6.6145835"
       width="18.520842"
       id="rect3738-6-1-0"
       inkscape:export-filename="/home/gilles/Dropbox/nsidocs/terminale_nsi/docs/T3_Algorithmique/3.1_Diviser_pour_regner/data/fusion.png" />
    <text
       inkscape:export-ydpi="96"
       inkscape:export-xdpi="96"
       id="text3717-7-2-9"
       y="83.511429"
       x="86.80233"
       style="font-style:normal;font-weight:normal;font-size:10.5833px;line-height:1.25;font-family:sans-serif;letter-spacing:0px;word-spacing:0px;fill:#ffffff;fill-opacity:1;stroke:none;stroke-width:0.264583"
       xml:space="preserve"
       inkscape:export-filename="/home/gilles/Dropbox/nsidocs/terminale_nsi/docs/T3_Algorithmique/3.1_Diviser_pour_regner/data/fusion.png"><tspan
         style="font-size:5.64444px;fill:#ffffff;stroke-width:0.264583"
         y="83.511429"
         x="86.80233"
         id="tspan3715-5-7-3"
         sodipodi:role="line">[8, 3]</tspan></text>
    <rect
       inkscape:export-ydpi="96"
       inkscape:export-xdpi="96"
       ry="1.3229179"
       style="fill:#483737;stroke-width:0.264583"
       y="78.219757"
       x="129.04118"
       height="6.614583"
       width="18.520842"
       id="rect3738-6-1-06"
       inkscape:export-filename="/home/gilles/Dropbox/nsidocs/terminale_nsi/docs/T3_Algorithmique/3.1_Diviser_pour_regner/data/fusion.png" />
    <text
       inkscape:export-ydpi="96"
       inkscape:export-xdpi="96"
       id="text3717-7-2-2"
       y="83.511421"
       x="130.4586"
       style="font-style:normal;font-weight:normal;font-size:10.5833px;line-height:1.25;font-family:sans-serif;letter-spacing:0px;word-spacing:0px;fill:#ffffff;fill-opacity:1;stroke:none;stroke-width:0.264583"
       xml:space="preserve"
       inkscape:export-filename="/home/gilles/Dropbox/nsidocs/terminale_nsi/docs/T3_Algorithmique/3.1_Diviser_pour_regner/data/fusion.png"><tspan
         style="font-size:5.64444px;fill:#ffffff;stroke-width:0.264583"
         y="83.511421"
         x="130.4586"
         id="tspan3715-5-7-6"
         sodipodi:role="line">[2, 7]</tspan></text>
    <g
       inkscape:export-ydpi="96"
       inkscape:export-xdpi="96"
       transform="translate(-36.323397,57.709339)"
       id="g4721"
       inkscape:export-filename="/home/gilles/Dropbox/nsidocs/terminale_nsi/docs/T3_Algorithmique/3.1_Diviser_pour_regner/data/fusion.png">
      <rect
         id="rect3738-6-1-02"
         width="10.583333"
         height="6.6145835"
         x="88.635414"
         y="33.739582"
         style="fill:#483737;stroke-width:0.264583"
         ry="1.3229179" />
      <text
         xml:space="preserve"
         style="font-style:normal;font-weight:normal;font-size:10.5833px;line-height:1.25;font-family:sans-serif;letter-spacing:0px;word-spacing:0px;fill:#ffffff;fill-opacity:1;stroke:none;stroke-width:0.264583"
         x="90.052826"
         y="39.03125"
         id="text3717-7-2-3"><tspan
           sodipodi:role="line"
           id="tspan3715-5-7-7"
           x="90.052826"
           y="39.03125"
           style="font-size:5.64444px;fill:#ffffff;stroke-width:0.264583">[4]</tspan></text>
    </g>
    <g
       inkscape:export-ydpi="96"
       inkscape:export-xdpi="96"
       transform="translate(-5.896313,57.709338)"
       id="g4721-8"
       inkscape:export-filename="/home/gilles/Dropbox/nsidocs/terminale_nsi/docs/T3_Algorithmique/3.1_Diviser_pour_regner/data/fusion.png">
      <rect
         id="rect3738-6-1-02-97"
         width="10.583333"
         height="6.6145835"
         x="88.635414"
         y="33.739582"
         style="fill:#483737;stroke-width:0.264583"
         ry="1.3229179" />
      <text
         xml:space="preserve"
         style="font-style:normal;font-weight:normal;font-size:10.5833px;line-height:1.25;font-family:sans-serif;letter-spacing:0px;word-spacing:0px;fill:#ffffff;fill-opacity:1;stroke:none;stroke-width:0.264583"
         x="90.052826"
         y="39.03125"
         id="text3717-7-2-3-3"><tspan
           sodipodi:role="line"
           id="tspan3715-5-7-7-6"
           x="90.052826"
           y="39.03125"
           style="font-size:5.64444px;fill:#ffffff;stroke-width:0.264583">[8]</tspan></text>
    </g>
    <g
       inkscape:export-ydpi="96"
       inkscape:export-xdpi="96"
       transform="translate(8.655773,57.709338)"
       id="g4721-5-1"
       inkscape:export-filename="/home/gilles/Dropbox/nsidocs/terminale_nsi/docs/T3_Algorithmique/3.1_Diviser_pour_regner/data/fusion.png">
      <rect
         id="rect3738-6-1-02-9-2"
         width="10.583333"
         height="6.6145835"
         x="88.635414"
         y="33.739582"
         style="fill:#483737;stroke-width:0.264583"
         ry="1.3229179" />
      <text
         xml:space="preserve"
         style="font-style:normal;font-weight:normal;font-size:10.5833px;line-height:1.25;font-family:sans-serif;letter-spacing:0px;word-spacing:0px;fill:#ffffff;fill-opacity:1;stroke:none;stroke-width:0.264583"
         x="90.052826"
         y="39.03125"
         id="text3717-7-2-3-2-9"><tspan
           sodipodi:role="line"
           id="tspan3715-5-7-7-2-3"
           x="90.052826"
           y="39.03125"
           style="font-size:5.64444px;fill:#ffffff;stroke-width:0.264583">[3]</tspan></text>
    </g>
    <g
       inkscape:export-ydpi="96"
       inkscape:export-xdpi="96"
       transform="translate(33.791189,57.709338)"
       id="g4721-1"
       inkscape:export-filename="/home/gilles/Dropbox/nsidocs/terminale_nsi/docs/T3_Algorithmique/3.1_Diviser_pour_regner/data/fusion.png">
      <rect
         id="rect3738-6-1-02-94"
         width="10.583333"
         height="6.6145835"
         x="88.635414"
         y="33.739582"
         style="fill:#483737;stroke-width:0.264583"
         ry="1.3229179" />
      <text
         xml:space="preserve"
         style="font-style:normal;font-weight:normal;font-size:10.5833px;line-height:1.25;font-family:sans-serif;letter-spacing:0px;word-spacing:0px;fill:#ffffff;fill-opacity:1;stroke:none;stroke-width:0.264583"
         x="90.052826"
         y="39.03125"
         id="text3717-7-2-3-7"><tspan
           sodipodi:role="line"
           id="tspan3715-5-7-7-8"
           x="90.052826"
           y="39.03125"
           style="font-size:5.64444px;fill:#ffffff;stroke-width:0.264583">[2]</tspan></text>
    </g>
    <g
       inkscape:export-ydpi="96"
       inkscape:export-xdpi="96"
       transform="translate(49.666187,57.709341)"
       id="g4721-5-4"
       inkscape:export-filename="/home/gilles/Dropbox/nsidocs/terminale_nsi/docs/T3_Algorithmique/3.1_Diviser_pour_regner/data/fusion.png">
      <rect
         id="rect3738-6-1-02-9-5"
         width="10.583333"
         height="6.6145835"
         x="88.635414"
         y="33.739582"
         style="fill:#483737;stroke-width:0.264583"
         ry="1.3229179" />
      <text
         xml:space="preserve"
         style="font-style:normal;font-weight:normal;font-size:10.5833px;line-height:1.25;font-family:sans-serif;letter-spacing:0px;word-spacing:0px;fill:#ffffff;fill-opacity:1;stroke:none;stroke-width:0.264583"
         x="90.052826"
         y="39.03125"
         id="text3717-7-2-3-2-0"><tspan
           sodipodi:role="line"
           id="tspan3715-5-7-7-2-36"
           x="90.052826"
           y="39.03125"
           style="font-size:5.64444px;fill:#ffffff;stroke-width:0.264583">[7]</tspan></text>
    </g>
    <rect
       inkscape:export-ydpi="96"
       inkscape:export-xdpi="96"
       id="rect3738-6-1-0-6"
       width="18.520842"
       height="6.6145835"
       x="85.384933"
       y="104.67809"
       style="fill:#1b85f1;fill-opacity:0.996078;stroke-width:0.264583"
       ry="1.3229179"
       inkscape:export-filename="/home/gilles/Dropbox/nsidocs/terminale_nsi/docs/T3_Algorithmique/3.1_Diviser_pour_regner/data/fusion.png" />
    <text
       inkscape:export-ydpi="96"
       inkscape:export-xdpi="96"
       xml:space="preserve"
       style="font-style:normal;font-weight:normal;font-size:10.5833px;line-height:1.25;font-family:sans-serif;letter-spacing:0px;word-spacing:0px;fill:#ffffff;fill-opacity:1;stroke:none;stroke-width:0.264583"
       x="86.802338"
       y="109.96976"
       id="text3717-7-2-9-9"
       inkscape:export-filename="/home/gilles/Dropbox/nsidocs/terminale_nsi/docs/T3_Algorithmique/3.1_Diviser_pour_regner/data/fusion.png"><tspan
         sodipodi:role="line"
         id="tspan3715-5-7-3-3"
         x="86.802338"
         y="109.96976"
         style="font-size:5.64444px;fill:#ffffff;stroke-width:0.264583">[3, 8]</tspan></text>
    <rect
       inkscape:export-ydpi="96"
       inkscape:export-xdpi="96"
       id="rect3738-6-1-06-4"
       width="18.520842"
       height="6.614583"
       x="129.0412"
       y="104.67809"
       style="fill:#1b91f1;fill-opacity:0.988235;stroke-width:0.264583"
       ry="1.3229179"
       inkscape:export-filename="/home/gilles/Dropbox/nsidocs/terminale_nsi/docs/T3_Algorithmique/3.1_Diviser_pour_regner/data/fusion.png" />
    <text
       inkscape:export-ydpi="96"
       inkscape:export-xdpi="96"
       xml:space="preserve"
       style="font-style:normal;font-weight:normal;font-size:10.5833px;line-height:1.25;font-family:sans-serif;letter-spacing:0px;word-spacing:0px;fill:#ffffff;fill-opacity:1;stroke:none;stroke-width:0.264583"
       x="130.4586"
       y="109.96976"
       id="text3717-7-2-2-5"
       inkscape:export-filename="/home/gilles/Dropbox/nsidocs/terminale_nsi/docs/T3_Algorithmique/3.1_Diviser_pour_regner/data/fusion.png"><tspan
         sodipodi:role="line"
         id="tspan3715-5-7-6-2"
         x="130.4586"
         y="109.96976"
         style="font-size:5.64444px;fill:#ffffff;stroke-width:0.264583">[2, 7]</tspan></text>
    <text
       inkscape:export-ydpi="96"
       inkscape:export-xdpi="96"
       xml:space="preserve"
       style="font-style:normal;font-weight:normal;font-size:10.5833px;line-height:1.25;font-family:sans-serif;letter-spacing:0px;word-spacing:0px;opacity:0.111;fill:#ffffff;fill-opacity:1;stroke:none;stroke-width:0.264583"
       x="122.5211"
       y="117.90726"
       id="text3717-7-2-9-9-4"
       inkscape:export-filename="/home/gilles/Dropbox/nsidocs/terminale_nsi/docs/T3_Algorithmique/3.1_Diviser_pour_regner/data/fusion.png"><tspan
         sodipodi:role="line"
         id="tspan3715-5-7-3-3-3"
         x="122.5211"
         y="117.90726"
         style="font-size:5.64444px;fill:#ffffff;stroke-width:0.264583">[2, 8]</tspan></text>
    <rect
       inkscape:export-ydpi="96"
       inkscape:export-xdpi="96"
       ry="1.3229179"
       style="fill:#1b85f1;fill-opacity:0.996078;stroke-width:0.264583"
       y="120.55309"
       x="65.541183"
       height="6.6145821"
       width="31.750008"
       id="rect3738-6-7"
       inkscape:export-filename="/home/gilles/Dropbox/nsidocs/terminale_nsi/docs/T3_Algorithmique/3.1_Diviser_pour_regner/data/fusion.png" />
    <text
       inkscape:export-ydpi="96"
       inkscape:export-xdpi="96"
       id="text3717-7-8"
       y="125.84476"
       x="69.982407"
       style="font-style:normal;font-weight:normal;font-size:10.5833px;line-height:1.25;font-family:sans-serif;letter-spacing:0px;word-spacing:0px;fill:#ffffff;fill-opacity:1;stroke:none;stroke-width:0.264583"
       xml:space="preserve"
       inkscape:export-filename="/home/gilles/Dropbox/nsidocs/terminale_nsi/docs/T3_Algorithmique/3.1_Diviser_pour_regner/data/fusion.png"><tspan
         style="font-size:5.64444px;fill:#ffffff;stroke-width:0.264583"
         y="125.84476"
         x="69.982407"
         id="tspan3715-5-6"
         sodipodi:role="line">[3, 4, 8]</tspan></text>
    <rect
       inkscape:export-ydpi="96"
       inkscape:export-xdpi="96"
       ry="1.3229179"
       style="opacity:0.997;fill:#1b85f1;fill-opacity:0.996078;stroke-width:0.264583"
       y="120.55309"
       x="135.65576"
       height="6.6145821"
       width="31.750008"
       id="rect3738-6-5-8"
       inkscape:export-filename="/home/gilles/Dropbox/nsidocs/terminale_nsi/docs/T3_Algorithmique/3.1_Diviser_pour_regner/data/fusion.png" />
    <text
       inkscape:export-ydpi="96"
       inkscape:export-xdpi="96"
       id="text3717-7-6-4"
       y="125.57748"
       x="137.2068"
       style="font-style:normal;font-weight:normal;font-size:10.5833px;line-height:1.25;font-family:sans-serif;letter-spacing:0px;word-spacing:0px;fill:#ffffff;fill-opacity:1;stroke:none;stroke-width:0.264583"
       xml:space="preserve"
       inkscape:export-filename="/home/gilles/Dropbox/nsidocs/terminale_nsi/docs/T3_Algorithmique/3.1_Diviser_pour_regner/data/fusion.png"><tspan
         style="font-size:5.64444px;fill:#ffffff;stroke-width:0.264583"
         y="125.57748"
         x="137.2068"
         id="tspan3715-5-2-3"
         sodipodi:role="line">[1, 2, 5, 7]</tspan></text>
    <rect
       inkscape:export-ydpi="96"
       inkscape:export-xdpi="96"
       ry="1.3229179"
       style="fill:#483737;stroke-width:0.264583"
       y="78.219757"
       x="162.11409"
       height="6.6145835"
       width="18.520842"
       id="rect3738-6-1-0-9"
       inkscape:export-filename="/home/gilles/Dropbox/nsidocs/terminale_nsi/docs/T3_Algorithmique/3.1_Diviser_pour_regner/data/fusion.png" />
    <text
       inkscape:export-ydpi="96"
       inkscape:export-xdpi="96"
       id="text3717-7-2-9-4"
       y="83.511429"
       x="163.53151"
       style="font-style:normal;font-weight:normal;font-size:10.5833px;line-height:1.25;font-family:sans-serif;letter-spacing:0px;word-spacing:0px;fill:#ffffff;fill-opacity:1;stroke:none;stroke-width:0.264583"
       xml:space="preserve"
       inkscape:export-filename="/home/gilles/Dropbox/nsidocs/terminale_nsi/docs/T3_Algorithmique/3.1_Diviser_pour_regner/data/fusion.png"><tspan
         style="font-size:5.64444px;fill:#ffffff;stroke-width:0.264583"
         y="83.511429"
         x="163.53151"
         id="tspan3715-5-7-3-9"
         sodipodi:role="line">[5, 1]</tspan></text>
    <path
       inkscape:export-ydpi="96"
       inkscape:export-xdpi="96"
       style="fill:none;stroke:#483737;stroke-width:0.565;stroke-linecap:round;stroke-linejoin:miter;stroke-miterlimit:4;stroke-dasharray:none;stroke-opacity:1"
       d="m 151.53076,71.605171 13.22917,6.614583"
       id="path5011-0-9-0"
       inkscape:connector-curvature="0"
       sodipodi:nodetypes="cc"
       inkscape:export-filename="/home/gilles/Dropbox/nsidocs/terminale_nsi/docs/T3_Algorithmique/3.1_Diviser_pour_regner/data/fusion.png" />
    <rect
       inkscape:export-ydpi="96"
       inkscape:export-xdpi="96"
       ry="1.3229179"
       style="fill:#1b85f1;fill-opacity:0.996078;stroke-width:0.264583"
       y="133.78224"
       x="91.999527"
       height="6.614583"
       width="52.916664"
       id="rect3738-4"
       inkscape:export-filename="/home/gilles/Dropbox/nsidocs/terminale_nsi/docs/T3_Algorithmique/3.1_Diviser_pour_regner/data/fusion.png" />
    <text
       inkscape:export-ydpi="96"
       inkscape:export-xdpi="96"
       id="text3717-9"
       y="138.88492"
       x="92.944466"
       style="font-style:normal;font-weight:normal;font-size:10.5833px;line-height:1.25;font-family:sans-serif;letter-spacing:0px;word-spacing:0px;fill:#ffffff;fill-opacity:1;stroke:none;stroke-width:0.264583"
       xml:space="preserve"
       inkscape:export-filename="/home/gilles/Dropbox/nsidocs/terminale_nsi/docs/T3_Algorithmique/3.1_Diviser_pour_regner/data/fusion.png"><tspan
         style="font-size:5.64444px;fill:#ffffff;stroke-width:0.264583"
         y="138.88492"
         x="92.944466"
         id="tspan3715-2"
         sodipodi:role="line">[1, 2, 3, 4, 5, 7, 8]</tspan></text>
    <path
       inkscape:export-ydpi="96"
       inkscape:export-xdpi="96"
       inkscape:connector-curvature="0"
       id="path5011"
       d="M 85.384937,64.990588 117.13494,58.376004"
       style="fill:none;stroke:#483737;stroke-width:0.565;stroke-linecap:round;stroke-linejoin:miter;stroke-miterlimit:4;stroke-dasharray:none;stroke-opacity:1"
       inkscape:export-filename="/home/gilles/Dropbox/nsidocs/terminale_nsi/docs/T3_Algorithmique/3.1_Diviser_pour_regner/data/fusion.png" />
    <path
       inkscape:export-ydpi="96"
       inkscape:export-xdpi="96"
       sodipodi:nodetypes="cc"
       inkscape:connector-curvature="0"
       id="path5011-6"
       d="m 117.13494,58.376004 33.07291,6.614582"
       style="fill:none;stroke:#483737;stroke-width:0.565;stroke-linecap:round;stroke-linejoin:miter;stroke-miterlimit:4;stroke-dasharray:none;stroke-opacity:1"
       inkscape:export-filename="/home/gilles/Dropbox/nsidocs/terminale_nsi/docs/T3_Algorithmique/3.1_Diviser_pour_regner/data/fusion.png" />
    <path
       inkscape:export-ydpi="96"
       inkscape:export-xdpi="96"
       sodipodi:nodetypes="cc"
       inkscape:connector-curvature="0"
       id="path5011-0-8"
       d="M 135.65577,78.219754 150.20785,71.60517"
       style="fill:none;stroke:#483737;stroke-width:0.565;stroke-linecap:round;stroke-linejoin:miter;stroke-miterlimit:4;stroke-dasharray:none;stroke-opacity:1"
       inkscape:export-filename="/home/gilles/Dropbox/nsidocs/terminale_nsi/docs/T3_Algorithmique/3.1_Diviser_pour_regner/data/fusion.png" />
    <path
       inkscape:export-ydpi="96"
       inkscape:export-xdpi="96"
       sodipodi:nodetypes="cc"
       inkscape:connector-curvature="0"
       id="path5011-0-9"
       d="M 81.416184,71.605171 94.64535,78.219754"
       style="fill:none;stroke:#483737;stroke-width:0.565;stroke-linecap:round;stroke-linejoin:miter;stroke-miterlimit:4;stroke-dasharray:none;stroke-opacity:1"
       inkscape:export-filename="/home/gilles/Dropbox/nsidocs/terminale_nsi/docs/T3_Algorithmique/3.1_Diviser_pour_regner/data/fusion.png" />
    <path
       inkscape:export-ydpi="96"
       inkscape:export-xdpi="96"
       sodipodi:nodetypes="cc"
       inkscape:connector-curvature="0"
       id="path5011-0-6"
       d="M 57.603686,91.448922 80.093268,71.605171"
       style="fill:none;stroke:#483737;stroke-width:0.565;stroke-linecap:round;stroke-linejoin:miter;stroke-miterlimit:4;stroke-dasharray:none;stroke-opacity:1"
       inkscape:export-filename="/home/gilles/Dropbox/nsidocs/terminale_nsi/docs/T3_Algorithmique/3.1_Diviser_pour_regner/data/fusion.png" />
    <path
       inkscape:export-ydpi="96"
       inkscape:export-xdpi="96"
       sodipodi:nodetypes="cc"
       inkscape:connector-curvature="0"
       id="path5011-0-6-6"
       d="m 129.04118,91.44892 9.26041,-6.614584"
       style="fill:none;stroke:#483737;stroke-width:0.565;stroke-linecap:round;stroke-linejoin:miter;stroke-miterlimit:4;stroke-dasharray:none;stroke-opacity:1"
       inkscape:export-filename="/home/gilles/Dropbox/nsidocs/terminale_nsi/docs/T3_Algorithmique/3.1_Diviser_pour_regner/data/fusion.png" />
    <path
       inkscape:export-ydpi="96"
       inkscape:export-xdpi="96"
       sodipodi:nodetypes="cc"
       inkscape:connector-curvature="0"
       id="path5011-0-6-4"
       d="m 89.353684,91.448921 5.291667,-6.614583"
       style="fill:none;stroke:#483737;stroke-width:0.565;stroke-linecap:round;stroke-linejoin:miter;stroke-miterlimit:4;stroke-dasharray:none;stroke-opacity:1"
       inkscape:export-filename="/home/gilles/Dropbox/nsidocs/terminale_nsi/docs/T3_Algorithmique/3.1_Diviser_pour_regner/data/fusion.png" />
    <path
       inkscape:export-ydpi="96"
       inkscape:export-xdpi="96"
       sodipodi:nodetypes="cc"
       inkscape:connector-curvature="0"
       id="path5011-0-6-9-5"
       d="M 105.22868,91.448921 94.645351,84.834338"
       style="fill:none;stroke:#483737;stroke-width:0.565;stroke-linecap:round;stroke-linejoin:miter;stroke-miterlimit:4;stroke-dasharray:none;stroke-opacity:1"
       inkscape:export-filename="/home/gilles/Dropbox/nsidocs/terminale_nsi/docs/T3_Algorithmique/3.1_Diviser_pour_regner/data/fusion.png" />
    <path
       inkscape:export-ydpi="96"
       inkscape:export-xdpi="96"
       sodipodi:nodetypes="cc"
       inkscape:connector-curvature="0"
       id="path5011-0-6-9-5-0"
       d="M 143.59326,91.44892 138.3016,84.834337"
       style="fill:none;stroke:#483737;stroke-width:0.565;stroke-linecap:round;stroke-linejoin:miter;stroke-miterlimit:4;stroke-dasharray:none;stroke-opacity:1"
       inkscape:export-filename="/home/gilles/Dropbox/nsidocs/terminale_nsi/docs/T3_Algorithmique/3.1_Diviser_pour_regner/data/fusion.png" />
    <path
       inkscape:export-ydpi="96"
       inkscape:export-xdpi="96"
       sodipodi:nodetypes="cc"
       inkscape:connector-curvature="0"
       id="path5011-0-6-48-7-2"
       d="M 105.22868,98.063505 94.645351,104.67809"
       style="opacity:0.994;fill:#008000;stroke:#1b85f1;stroke-width:0.565;stroke-linecap:round;stroke-linejoin:miter;stroke-miterlimit:4;stroke-dasharray:none;stroke-opacity:1"
       inkscape:export-filename="/home/gilles/Dropbox/nsidocs/terminale_nsi/docs/T3_Algorithmique/3.1_Diviser_pour_regner/data/fusion.png" />
    <path
       inkscape:export-ydpi="96"
       inkscape:export-xdpi="96"
       sodipodi:nodetypes="cc"
       inkscape:connector-curvature="0"
       id="path5011-0-6-48-7-1-2"
       d="m 135.65576,111.29267 17.19792,9.26042"
       style="fill:#008000;stroke:#1a91f2;stroke-width:0.565;stroke-linecap:round;stroke-linejoin:miter;stroke-miterlimit:4;stroke-dasharray:none;stroke-opacity:0.988235"
       inkscape:export-filename="/home/gilles/Dropbox/nsidocs/terminale_nsi/docs/T3_Algorithmique/3.1_Diviser_pour_regner/data/fusion.png" />
    <path
       inkscape:export-ydpi="96"
       inkscape:export-xdpi="96"
       sodipodi:nodetypes="cc"
       inkscape:connector-curvature="0"
       id="path5011-0-6-48-7-1-2-6-1"
       d="m 94.645344,111.29267 -13.229157,9.26042"
       style="fill:#008000;stroke:#1b85f1;stroke-width:0.565;stroke-linecap:round;stroke-linejoin:miter;stroke-miterlimit:4;stroke-dasharray:none;stroke-opacity:0.996078"
       inkscape:export-filename="/home/gilles/Dropbox/nsidocs/terminale_nsi/docs/T3_Algorithmique/3.1_Diviser_pour_regner/data/fusion.png" />
    <path
       inkscape:export-ydpi="96"
       inkscape:export-xdpi="96"
       sodipodi:nodetypes="cc"
       inkscape:connector-curvature="0"
       id="path5011-0-6-48-7-1-2-6-0"
       d="m 81.416187,127.16767 35.718753,6.61459"
       style="fill:#008000;stroke:#1b85f1;stroke-width:0.565;stroke-linecap:round;stroke-linejoin:miter;stroke-miterlimit:4;stroke-dasharray:none;stroke-opacity:0.996078"
       inkscape:export-filename="/home/gilles/Dropbox/nsidocs/terminale_nsi/docs/T3_Algorithmique/3.1_Diviser_pour_regner/data/fusion.png" />
    <path
       inkscape:export-ydpi="96"
       inkscape:export-xdpi="96"
       sodipodi:nodetypes="cc"
       inkscape:connector-curvature="0"
       id="path5011-0-6-48-7-7-2-6"
       d="m 117.13494,133.78226 35.71874,-6.61459"
       style="fill:#008000;stroke:#1b85f1;stroke-width:0.565;stroke-linecap:round;stroke-linejoin:miter;stroke-miterlimit:4;stroke-dasharray:none;stroke-opacity:0.996078"
       inkscape:export-filename="/home/gilles/Dropbox/nsidocs/terminale_nsi/docs/T3_Algorithmique/3.1_Diviser_pour_regner/data/fusion.png" />
    <g
       inkscape:export-ydpi="96"
       inkscape:export-xdpi="96"
       transform="translate(69.50994,57.709338)"
       id="g4721-1-9"
       inkscape:export-filename="/home/gilles/Dropbox/nsidocs/terminale_nsi/docs/T3_Algorithmique/3.1_Diviser_pour_regner/data/fusion.png">
      <rect
         id="rect3738-6-1-02-94-1"
         width="10.583333"
         height="6.6145835"
         x="88.635414"
         y="33.739582"
         style="fill:#483737;stroke-width:0.264583"
         ry="1.3229179" />
      <text
         xml:space="preserve"
         style="font-style:normal;font-weight:normal;font-size:10.5833px;line-height:1.25;font-family:sans-serif;letter-spacing:0px;word-spacing:0px;fill:#ffffff;fill-opacity:1;stroke:none;stroke-width:0.264583"
         x="90.052826"
         y="39.03125"
         id="text3717-7-2-3-7-7"><tspan
           sodipodi:role="line"
           id="tspan3715-5-7-7-8-7"
           x="90.052826"
           y="39.03125"
           style="font-size:5.64444px;fill:#ffffff;stroke-width:0.264583">[5]</tspan></text>
    </g>
    <g
       inkscape:export-ydpi="96"
       inkscape:export-xdpi="96"
       transform="translate(84.062023,57.709338)"
       id="g4721-5-4-1"
       inkscape:export-filename="/home/gilles/Dropbox/nsidocs/terminale_nsi/docs/T3_Algorithmique/3.1_Diviser_pour_regner/data/fusion.png">
      <rect
         id="rect3738-6-1-02-9-5-1"
         width="10.583333"
         height="6.6145835"
         x="88.635414"
         y="33.739582"
         style="fill:#483737;stroke-width:0.264583"
         ry="1.3229179" />
      <text
         xml:space="preserve"
         style="font-style:normal;font-weight:normal;font-size:10.5833px;line-height:1.25;font-family:sans-serif;letter-spacing:0px;word-spacing:0px;fill:#ffffff;fill-opacity:1;stroke:none;stroke-width:0.264583"
         x="90.052826"
         y="39.03125"
         id="text3717-7-2-3-2-0-5"><tspan
           sodipodi:role="line"
           id="tspan3715-5-7-7-2-36-9"
           x="90.052826"
           y="39.03125"
           style="font-size:5.64444px;fill:#ffffff;stroke-width:0.264583">[1]</tspan></text>
    </g>
    <path
       inkscape:export-ydpi="96"
       inkscape:export-xdpi="96"
       sodipodi:nodetypes="cc"
       inkscape:connector-curvature="0"
       id="path5011-0-6-6-7"
       d="m 164.75994,91.448921 6.61458,-6.614586"
       style="fill:none;stroke:#483737;stroke-width:0.565;stroke-linecap:round;stroke-linejoin:miter;stroke-miterlimit:4;stroke-dasharray:none;stroke-opacity:1"
       inkscape:export-filename="/home/gilles/Dropbox/nsidocs/terminale_nsi/docs/T3_Algorithmique/3.1_Diviser_pour_regner/data/fusion.png" />
    <path
       inkscape:export-ydpi="96"
       inkscape:export-xdpi="96"
       sodipodi:nodetypes="cc"
       inkscape:connector-curvature="0"
       id="path5011-0-6-9-5-0-7"
       d="m 179.31202,91.448921 -7.9375,-6.614586"
       style="fill:none;stroke:#483737;stroke-width:0.565;stroke-linecap:round;stroke-linejoin:miter;stroke-miterlimit:4;stroke-dasharray:none;stroke-opacity:1"
       inkscape:export-filename="/home/gilles/Dropbox/nsidocs/terminale_nsi/docs/T3_Algorithmique/3.1_Diviser_pour_regner/data/fusion.png" />
    <rect
       inkscape:export-ydpi="96"
       inkscape:export-xdpi="96"
       id="rect3738-6-1-06-4-6"
       width="18.520842"
       height="6.6145835"
       x="162.11409"
       y="104.67809"
       style="fill:#1b91f1;fill-opacity:1;stroke-width:0.264583"
       ry="1.3229179"
       inkscape:export-filename="/home/gilles/Dropbox/nsidocs/terminale_nsi/docs/T3_Algorithmique/3.1_Diviser_pour_regner/data/fusion.png" />
    <text
       inkscape:export-ydpi="96"
       inkscape:export-xdpi="96"
       xml:space="preserve"
       style="font-style:normal;font-weight:normal;font-size:10.5833px;line-height:1.25;font-family:sans-serif;letter-spacing:0px;word-spacing:0px;fill:#ffffff;fill-opacity:1;stroke:none;stroke-width:0.264583"
       x="163.53149"
       y="109.96976"
       id="text3717-7-2-2-5-7"
       inkscape:export-filename="/home/gilles/Dropbox/nsidocs/terminale_nsi/docs/T3_Algorithmique/3.1_Diviser_pour_regner/data/fusion.png"><tspan
         sodipodi:role="line"
         id="tspan3715-5-7-6-2-3"
         x="163.53149"
         y="109.96976"
         style="font-size:5.64444px;fill:#ffffff;stroke-width:0.264583">[1, 5]</tspan></text>
    <path
       inkscape:export-ydpi="96"
       inkscape:export-xdpi="96"
       sodipodi:nodetypes="cc"
       inkscape:connector-curvature="0"
       id="path5011-0-6-48-7-7-7-6"
       d="m 152.85368,120.55309 11.90625,-9.26042"
       style="fill:#008000;stroke:#1b91f1;stroke-width:0.565;stroke-linecap:round;stroke-linejoin:miter;stroke-miterlimit:4;stroke-dasharray:none;stroke-opacity:1"
       inkscape:export-filename="/home/gilles/Dropbox/nsidocs/terminale_nsi/docs/T3_Algorithmique/3.1_Diviser_pour_regner/data/fusion.png" />
    <rect
       inkscape:export-ydpi="96"
       inkscape:export-xdpi="96"
       rx="1.3229166"
       ry="1.3229166"
       y="61.021835"
       x="44.374519"
       height="68.791664"
       width="70.114586"
       id="rect5668"
       style="fill:none;stroke:#f1641b;stroke-width:0.570855;stroke-linecap:round;stroke-miterlimit:4;stroke-dasharray:none;stroke-opacity:1"
       inkscape:export-filename="/home/gilles/Dropbox/nsidocs/terminale_nsi/docs/T3_Algorithmique/3.1_Diviser_pour_regner/data/fusion.png" />
    <rect
       inkscape:export-ydpi="96"
       inkscape:export-xdpi="96"
       ry="1.3229166"
       y="61.021835"
       x="115.81202"
       height="68.791664"
       width="74.083336"
       id="rect5668-3"
       style="fill:none;stroke:#f1641b;stroke-width:0.570855;stroke-linecap:round;stroke-miterlimit:4;stroke-dasharray:none;stroke-opacity:1"
       inkscape:export-filename="/home/gilles/Dropbox/nsidocs/terminale_nsi/docs/T3_Algorithmique/3.1_Diviser_pour_regner/data/fusion.png" />
    <rect
       inkscape:export-ydpi="96"
       inkscape:export-xdpi="96"
       ry="1.3229166"
       y="76.896835"
       x="78.770355"
       height="39.6875"
       width="33.072922"
       id="rect5700"
       style="fill:none;stroke:#f1641b;stroke-width:0.565;stroke-linecap:round;stroke-miterlimit:4;stroke-dasharray:none;stroke-opacity:1"
       inkscape:export-filename="/home/gilles/Dropbox/nsidocs/terminale_nsi/docs/T3_Algorithmique/3.1_Diviser_pour_regner/data/fusion.png" />
    <rect
       inkscape:export-ydpi="96"
       inkscape:export-xdpi="96"
       ry="1.3229166"
       y="76.896835"
       x="47.020355"
       height="39.6875"
       width="30.956257"
       id="rect5700-4"
       style="fill:none;stroke:#f1641b;stroke-width:0.565;stroke-linecap:round;stroke-miterlimit:4;stroke-dasharray:none;stroke-opacity:1"
       inkscape:export-filename="/home/gilles/Dropbox/nsidocs/terminale_nsi/docs/T3_Algorithmique/3.1_Diviser_pour_regner/data/fusion.png" />
    <rect
       inkscape:export-ydpi="96"
       inkscape:export-xdpi="96"
       ry="1.3229166"
       y="88.803085"
       x="81.416183"
       height="11.90625"
       width="13.229166"
       id="rect5717"
       style="fill:none;stroke:#f1641b;stroke-width:0.565;stroke-linecap:round;stroke-miterlimit:4;stroke-dasharray:none;stroke-opacity:1"
       inkscape:export-filename="/home/gilles/Dropbox/nsidocs/terminale_nsi/docs/T3_Algorithmique/3.1_Diviser_pour_regner/data/fusion.png" />
    <rect
       inkscape:export-ydpi="96"
       inkscape:export-xdpi="96"
       ry="1.3229166"
       y="88.803085"
       x="95.968277"
       height="11.90625"
       width="12.964583"
       id="rect5717-8"
       style="fill:none;stroke:#f1641b;stroke-width:0.559321;stroke-linecap:round;stroke-miterlimit:4;stroke-dasharray:none;stroke-opacity:1"
       inkscape:export-filename="/home/gilles/Dropbox/nsidocs/terminale_nsi/docs/T3_Algorithmique/3.1_Diviser_pour_regner/data/fusion.png" />
    <rect
       inkscape:export-ydpi="96"
       inkscape:export-xdpi="96"
       ry="1.3229166"
       y="76.896835"
       x="118.45786"
       height="39.6875"
       width="34.395832"
       id="rect5700-1"
       style="fill:none;stroke:#f1641b;stroke-width:0.565;stroke-linecap:round;stroke-miterlimit:4;stroke-dasharray:none;stroke-opacity:1"
       inkscape:export-filename="/home/gilles/Dropbox/nsidocs/terminale_nsi/docs/T3_Algorithmique/3.1_Diviser_pour_regner/data/fusion.png" />
    <rect
       inkscape:export-ydpi="96"
       inkscape:export-xdpi="96"
       ry="1.3229166"
       y="88.803085"
       x="121.36827"
       height="11.90625"
       width="12.964583"
       id="rect5717-8-2"
       style="fill:none;stroke:#f1641b;stroke-width:0.559321;stroke-linecap:round;stroke-miterlimit:4;stroke-dasharray:none;stroke-opacity:1"
       inkscape:export-filename="/home/gilles/Dropbox/nsidocs/terminale_nsi/docs/T3_Algorithmique/3.1_Diviser_pour_regner/data/fusion.png" />
    <rect
       inkscape:export-ydpi="96"
       inkscape:export-xdpi="96"
       ry="1.3229166"
       y="88.803085"
       x="137.50786"
       height="11.90625"
       width="12.964583"
       id="rect5717-8-2-9"
       style="fill:none;stroke:#f1641b;stroke-width:0.559321;stroke-linecap:round;stroke-miterlimit:4;stroke-dasharray:none;stroke-opacity:1"
       inkscape:export-filename="/home/gilles/Dropbox/nsidocs/terminale_nsi/docs/T3_Algorithmique/3.1_Diviser_pour_regner/data/fusion.png" />
    <rect
       inkscape:export-ydpi="96"
       inkscape:export-xdpi="96"
       ry="1.3229166"
       y="76.896835"
       x="154.17661"
       height="39.6875"
       width="33.072918"
       id="rect5700-1-3"
       style="fill:none;stroke:#f1641b;stroke-width:0.565;stroke-linecap:round;stroke-miterlimit:4;stroke-dasharray:none;stroke-opacity:1"
       inkscape:export-filename="/home/gilles/Dropbox/nsidocs/terminale_nsi/docs/T3_Algorithmique/3.1_Diviser_pour_regner/data/fusion.png" />
    <rect
       inkscape:export-ydpi="96"
       inkscape:export-xdpi="96"
       ry="1.3229166"
       y="88.803085"
       x="157.08702"
       height="11.90625"
       width="12.964583"
       id="rect5717-8-2-9-9"
       style="fill:none;stroke:#f1641b;stroke-width:0.559321;stroke-linecap:round;stroke-miterlimit:4;stroke-dasharray:none;stroke-opacity:1"
       inkscape:export-filename="/home/gilles/Dropbox/nsidocs/terminale_nsi/docs/T3_Algorithmique/3.1_Diviser_pour_regner/data/fusion.png" />
    <rect
       inkscape:export-ydpi="96"
       inkscape:export-xdpi="96"
       ry="1.3229166"
       y="88.803078"
       x="171.37451"
       height="11.90625"
       width="12.964583"
       id="rect5717-8-2-9-9-0"
       style="fill:none;stroke:#f1641b;stroke-width:0.559321;stroke-linecap:round;stroke-miterlimit:4;stroke-dasharray:none;stroke-opacity:1"
       inkscape:export-filename="/home/gilles/Dropbox/nsidocs/terminale_nsi/docs/T3_Algorithmique/3.1_Diviser_pour_regner/data/fusion.png" />
    <rect
       inkscape:export-ydpi="96"
       inkscape:export-xdpi="96"
       rx="0"
       ry="1.3229166"
       y="59.698917"
       x="43.051605"
       height="71.4375"
       width="148.16667"
       id="rect5824"
       style="fill:none;stroke:#1b85f1;stroke-width:0.565;stroke-linecap:round;stroke-miterlimit:4;stroke-dasharray:none;stroke-opacity:1"
       inkscape:export-filename="/home/gilles/Dropbox/nsidocs/terminale_nsi/docs/T3_Algorithmique/3.1_Diviser_pour_regner/data/fusion.png" />
    <rect
       inkscape:export-ydpi="96"
       inkscape:export-xdpi="96"
       ry="1.3229166"
       y="75.573921"
       x="45.697437"
       height="42.333336"
       width="67.46875"
       id="rect5826"
       style="fill:none;stroke:#1b85f1;stroke-width:0.565;stroke-linecap:round;stroke-miterlimit:4;stroke-dasharray:none;stroke-opacity:1"
       inkscape:export-filename="/home/gilles/Dropbox/nsidocs/terminale_nsi/docs/T3_Algorithmique/3.1_Diviser_pour_regner/data/fusion.png" />
    <rect
       inkscape:export-ydpi="96"
       inkscape:export-xdpi="96"
       ry="1.3229166"
       y="87.480171"
       x="80.093269"
       height="14.552083"
       width="30.427082"
       id="rect5828"
       style="fill:none;stroke:#1b91f1;stroke-width:0.565;stroke-linecap:round;stroke-miterlimit:4;stroke-dasharray:none;stroke-opacity:1"
       inkscape:export-filename="/home/gilles/Dropbox/nsidocs/terminale_nsi/docs/T3_Algorithmique/3.1_Diviser_pour_regner/data/fusion.png" />
    <rect
       inkscape:export-ydpi="96"
       inkscape:export-xdpi="96"
       ry="1.3229166"
       y="75.573921"
       x="117.13493"
       height="42.333336"
       width="71.437508"
       id="rect5826-8"
       style="opacity:0.944;fill:none;stroke:#1b85f1;stroke-width:0.565;stroke-linecap:round;stroke-miterlimit:4;stroke-dasharray:none;stroke-opacity:1"
       inkscape:export-filename="/home/gilles/Dropbox/nsidocs/terminale_nsi/docs/T3_Algorithmique/3.1_Diviser_pour_regner/data/fusion.png" />
    <rect
       inkscape:export-ydpi="96"
       inkscape:export-xdpi="96"
       ry="1.3229166"
       y="87.480171"
       x="119.78077"
       height="14.552081"
       width="31.750002"
       id="rect5828-8"
       style="opacity:0.988;fill:none;stroke:#1b91f1;stroke-width:0.565;stroke-linecap:round;stroke-miterlimit:4;stroke-dasharray:none;stroke-opacity:1"
       inkscape:export-filename="/home/gilles/Dropbox/nsidocs/terminale_nsi/docs/T3_Algorithmique/3.1_Diviser_pour_regner/data/fusion.png" />
    <rect
       inkscape:export-ydpi="96"
       inkscape:export-xdpi="96"
       ry="1.3229166"
       y="87.480171"
       x="155.49953"
       height="14.552081"
       width="30.427078"
       id="rect5828-8-5"
       style="fill:none;stroke:#1b91f1;stroke-width:0.565;stroke-linecap:round;stroke-miterlimit:4;stroke-dasharray:none;stroke-opacity:1"
       inkscape:export-filename="/home/gilles/Dropbox/nsidocs/terminale_nsi/docs/T3_Algorithmique/3.1_Diviser_pour_regner/data/fusion.png" />
    <rect
       inkscape:export-ydpi="96"
       inkscape:export-xdpi="96"
       ry="1.3229166"
       y="50.438503"
       x="41.728687"
       height="91.28125"
       width="150.8125"
       id="rect5668-3-0"
       style="fill:none;stroke:#f1641b;stroke-width:0.570855;stroke-linecap:round;stroke-miterlimit:4;stroke-dasharray:none;stroke-opacity:1"
       inkscape:export-filename="/home/gilles/Dropbox/nsidocs/terminale_nsi/docs/T3_Algorithmique/3.1_Diviser_pour_regner/data/fusion.png" />
    <rect
       inkscape:export-ydpi="96"
       inkscape:export-xdpi="96"
       ry="1.3229166"
       y="145.9308"
       x="48.686192"
       height="8.3130074"
       width="15.17104"
       id="rect5668-3-0-7"
       style="fill:none;stroke:#f1641b;stroke-width:0.570855;stroke-linecap:round;stroke-miterlimit:4;stroke-dasharray:none;stroke-opacity:1"
       inkscape:export-filename="/home/gilles/Dropbox/nsidocs/terminale_nsi/docs/T3_Algorithmique/3.1_Diviser_pour_regner/data/fusion.png" />
    <rect
       inkscape:export-ydpi="96"
       inkscape:export-xdpi="96"
       rx="0"
       ry="1.3229166"
       y="157.93092"
       x="114.08274"
       height="9.0542526"
       width="15.068735"
       id="rect5824-5"
       style="fill:none;stroke:#1b85f1;stroke-width:0.565;stroke-linecap:round;stroke-miterlimit:4;stroke-dasharray:none;stroke-opacity:1"
       inkscape:export-filename="/home/gilles/Dropbox/nsidocs/terminale_nsi/docs/T3_Algorithmique/3.1_Diviser_pour_regner/data/fusion.png" />
    <text
       xml:space="preserve"
       style="font-size:4.23333px;line-height:1.25;font-family:'Bitstream Vera Sans Mono';-inkscape-font-specification:'Bitstream Vera Sans Mono';letter-spacing:0px;word-spacing:0px;stroke-width:0.264583"
       x="131.63959"
       y="164.06357"
       id="text3467"
       inkscape:export-filename="/home/gilles/Dropbox/nsidocs/terminale_nsi/docs/T3_Algorithmique/3.1_Diviser_pour_regner/data/fusion.png"
       inkscape:export-xdpi="96"
       inkscape:export-ydpi="96"><tspan
         sodipodi:role="line"
         id="tspan3465"
         style="stroke-width:0.264583"
         x="131.63959"
         y="164.06357">fusion(liste1, liste2)</tspan></text>
    <text
       xml:space="preserve"
       style="font-size:4.23333px;line-height:1.25;font-family:'Bitstream Vera Sans Mono';-inkscape-font-specification:'Bitstream Vera Sans Mono';letter-spacing:0px;word-spacing:0px;stroke-width:0.264583"
       x="66.329559"
       y="151.30156"
       id="text3467-3"
       inkscape:export-filename="/home/gilles/Dropbox/nsidocs/terminale_nsi/docs/T3_Algorithmique/3.1_Diviser_pour_regner/data/fusion.png"
       inkscape:export-xdpi="96"
       inkscape:export-ydpi="96"><tspan
         sodipodi:role="line"
         id="tspan3465-5"
         style="stroke-width:0.264583"
         x="66.329559"
         y="151.30156">tri_fusion(liste)</tspan></text>
    <rect
       inkscape:export-ydpi="96"
       inkscape:export-xdpi="96"
       ry="1.3973155"
       y="159.08064"
       x="48.806644"
       height="8.7805185"
       width="15.17104"
       id="rect5668-3-0-7-5"
       style="fill:none;stroke:#483737;stroke-width:0.586688;stroke-linecap:round;stroke-miterlimit:4;stroke-dasharray:none;stroke-opacity:1"
       inkscape:export-filename="/home/gilles/Dropbox/nsidocs/terminale_nsi/docs/T3_Algorithmique/3.1_Diviser_pour_regner/data/fusion.png" />
    <text
       xml:space="preserve"
       style="font-size:4.23333px;line-height:1.25;font-family:'Bitstream Vera Sans Mono';-inkscape-font-specification:'Bitstream Vera Sans Mono';letter-spacing:0px;word-spacing:0px;stroke-width:0.264583"
       x="66.835587"
       y="165.09752"
       id="text3467-3-6"
       inkscape:export-filename="/home/gilles/Dropbox/nsidocs/terminale_nsi/docs/T3_Algorithmique/3.1_Diviser_pour_regner/data/fusion.png"
       inkscape:export-xdpi="96"
       inkscape:export-ydpi="96"><tspan
         sodipodi:role="line"
         id="tspan3465-5-2"
         style="stroke-width:0.264583"
         x="66.835587"
         y="165.09752">decoupe(liste)</tspan></text>
  </g>
</svg>
